<?xml version="1.0" encoding="UTF-8" standalone="no"?>
<!-- Created with Inkscape (http://www.inkscape.org/) -->

<svg
   xmlns:dc="http://purl.org/dc/elements/1.1/"
   xmlns:cc="http://creativecommons.org/ns#"
   xmlns:rdf="http://www.w3.org/1999/02/22-rdf-syntax-ns#"
   xmlns:svg="http://www.w3.org/2000/svg"
   xmlns="http://www.w3.org/2000/svg"
   xmlns:xlink="http://www.w3.org/1999/xlink"
   xmlns:sodipodi="http://sodipodi.sourceforge.net/DTD/sodipodi-0.dtd"
   xmlns:inkscape="http://www.inkscape.org/namespaces/inkscape"
   width="162"
   height="53"
   id="svg3051"
   version="1.1"
   inkscape:version="0.48.4 r9939"
   sodipodi:docname="New document 2">
  <defs
     id="defs3053">
    <linearGradient
       inkscape:collect="always"
       xlink:href="#linearGradient4365"
       id="linearGradient3225"
       gradientUnits="userSpaceOnUse"
       gradientTransform="matrix(2.8941415,0,0,2.9386747,-9.0833386,-98.926058)"
       x1="29.053534"
       y1="30.012848"
       x2="29.053534"
       y2="40.708576" />
    <linearGradient
       inkscape:collect="always"
       id="linearGradient4365">
      <stop
         style="stop-color:#ff0000;stop-opacity:1;"
         offset="0"
         id="stop4367" />
      <stop
         style="stop-color:#ff0000;stop-opacity:0;"
         offset="1"
         id="stop4369" />
    </linearGradient>
    <filter
       inkscape:collect="always"
       id="filter4343"
       color-interpolation-filters="sRGB">
      <feGaussianBlur
         inkscape:collect="always"
         stdDeviation="1.2049549"
         id="feGaussianBlur4345" />
    </filter>
    <linearGradient
       inkscape:collect="always"
       xlink:href="#linearGradient4379"
       id="linearGradient3227"
       gradientUnits="userSpaceOnUse"
       gradientTransform="matrix(2.8941415,0,0,2.9386747,-9.0833386,-98.926058)"
       x1="44.128479"
       y1="36.591007"
       x2="38.235546"
       y2="35.16869" />
    <linearGradient
       inkscape:collect="always"
       id="linearGradient4379">
      <stop
         style="stop-color:#d40000;stop-opacity:1;"
         offset="0"
         id="stop4381" />
      <stop
         style="stop-color:#d40000;stop-opacity:0;"
         offset="1"
         id="stop4383" />
    </linearGradient>
    <linearGradient
       y2="35.16869"
       x2="38.235546"
       y1="36.591007"
       x1="44.128479"
       gradientTransform="matrix(2.8941415,0,0,2.9386747,-9.0833386,-98.926058)"
       gradientUnits="userSpaceOnUse"
       id="linearGradient3049"
       xlink:href="#linearGradient4379"
       inkscape:collect="always" />
  </defs>
  <sodipodi:namedview
     id="base"
     pagecolor="#ffffff"
     bordercolor="#666666"
     borderopacity="1.0"
     inkscape:pageopacity="0.0"
     inkscape:pageshadow="2"
     inkscape:zoom="0.35"
     inkscape:cx="375"
     inkscape:cy="520"
     inkscape:document-units="px"
     inkscape:current-layer="layer1"
     showgrid="false"
     inkscape:window-width="1855"
     inkscape:window-height="1056"
     inkscape:window-x="65"
     inkscape:window-y="24"
     inkscape:window-maximized="1" />
  <metadata
     id="metadata3056">
    <rdf:RDF>
      <cc:Work
         rdf:about="">
        <dc:format>image/svg+xml</dc:format>
        <dc:type
           rdf:resource="http://purl.org/dc/dcmitype/StillImage" />
        <dc:title></dc:title>
      </cc:Work>
    </rdf:RDF>
  </metadata>
  <g
     inkscape:label="Layer 1"
     inkscape:groupmode="layer"
     id="layer1"
     transform="translate(0,-999.36218)">
    <g
       id="g3217"
       transform="matrix(1.0424124,0,0,0.99627835,-10.22658,1011.3266)">
      <path
         inkscape:export-ydpi="36.964985"
         inkscape:export-xdpi="36.964985"
         inkscape:export-filename="C:\Documents and Settings\Fastallow\Desktop\cars_logo.png"
         sodipodi:nodetypes="cssscsssc"
         id="path15758"
         d="m 165.07615,20.703228 c 0,0 -12.49926,-9.694412 -22.63672,-10.7432265 C 133.94509,9.0811556 122.94449,9.990797 116.61446,5.5650435 103.9131,-3.3157898 92.873806,-10.391561 66.558654,-11.770655 31.728766,-13.595976 7.6663072,14.197121 10.126306,18.749926 8.2728994,18.324098 32.075451,-10.018524 67.515131,-6.3990357 87.207498,-4.3878384 93.10863,-0.3715519 113.4262,10.20416 c 7.50974,3.908967 21.2385,2.119479 30.28855,2.685818 9.77475,0.611679 21.3614,7.81325 21.3614,7.81325 z"
         style="fill:url(#linearGradient3225);fill-opacity:1;stroke:#000000;stroke-width:0;stroke-linecap:butt;stroke-linejoin:miter;stroke-miterlimit:4;stroke-opacity:1;stroke-dasharray:none"
         inkscape:connector-curvature="0" />
      <path
         sodipodi:type="spiral"
         style="opacity:0.19711537;fill:#e6e6e6;stroke:#c0b6b6;stroke-width:3.12519693;stroke-linecap:butt;stroke-linejoin:miter;stroke-miterlimit:4;stroke-opacity:1;stroke-dasharray:none;filter:url(#filter4343)"
         id="path4349"
         sodipodi:cx="86.269928"
         sodipodi:cy="254.11479"
         sodipodi:expansion="1"
         sodipodi:revolution="2.7224941"
         sodipodi:radius="44.08551"
         sodipodi:argument="-18.088543"
         sodipodi:t0="0"
         d="m 86.269928,254.11479 c 1.76377,1.67978 -1.39413,3.20627 -2.791908,2.9315 -3.78789,-0.74461 -4.511236,-5.55552 -3.071095,-8.51531 2.576073,-5.29438 9.581786,-6.07813 14.238726,-3.21069 6.834249,4.20807 7.689859,13.66209 3.350283,19.96213 -5.783978,8.39696 -17.761515,9.32062 -25.685544,3.48988 -9.971582,-7.33739 -10.961183,-21.87002 -3.629471,-31.40895 8.879685,-11.55293 25.983648,-12.60743 37.132361,-3.76907 13.13837,10.41571 14.25725,30.10046 3.90866,42.85577 -11.947851,14.72651 -34.219402,15.90944 -48.57918,4.04826 -16.316492,-13.47743 -17.563294,-38.33984 -4.187848,-54.30259 13.122896,-15.66135 36.31952,-18.98105 53.776078,-8.75774"
         transform="matrix(-0.21065421,-0.18666957,0.21065421,-0.18666957,115.5763,88.988631)" />
      <path
         transform="matrix(-0.25633306,-0.22714756,0.25633306,-0.22714756,-13.383654,102.99392)"
         d="m 86.269928,254.11479 c 1.76377,1.67978 -1.39413,3.20627 -2.791908,2.9315 -3.787891,-0.74461 -4.511237,-5.55552 -3.071096,-8.51531 2.576074,-5.29439 9.581787,-6.07813 14.238728,-3.21069 6.834248,4.20807 7.689868,13.66209 3.350284,19.96213 -5.783979,8.39697 -17.761517,9.32062 -25.685547,3.48988 -9.971584,-7.33739 -10.961185,-21.87002 -3.629473,-31.40896 8.879687,-11.55292 25.983652,-12.60743 37.132364,-3.76906 13.13838,10.41571 14.25725,30.10046 3.90866,42.85578 -11.947849,14.72651 -34.219403,15.90943 -48.579183,4.04825 -16.316494,-13.47743 -17.563296,-38.33984 -4.187848,-54.3026 15.005231,-17.90779 42.461372,-19.21836 60.026001,-4.32744 4.69419,3.97963 8.539,8.932 11.25675,14.45203"
         sodipodi:t0="0"
         sodipodi:argument="-18.088543"
         sodipodi:radius="45.58437"
         sodipodi:revolution="2.8150556"
         sodipodi:expansion="1"
         sodipodi:cy="254.11479"
         sodipodi:cx="86.269928"
         id="path2878"
         style="opacity:0.19711537;fill:#6c5353;stroke:#c0b6b6;stroke-width:3.12519693;stroke-linecap:butt;stroke-linejoin:miter;stroke-miterlimit:4;stroke-opacity:1;stroke-dasharray:none;filter:url(#filter4343)"
         sodipodi:type="spiral" />
      <path
         transform="matrix(2.5769756,0,0,3.7183236,-8.5019811,-131.07055)"
         sodipodi:end="11.809097"
         sodipodi:start="5.8809484"
         d="m 17.690703,40.689858 c 1.081499,1.706352 -0.102566,3.678112 -2.644682,4.404049 -2.542116,0.725938 -5.4796364,-0.06885 -6.5611352,-1.775197 -1.0814988,-1.706352 0.1025655,-3.678112 2.6446812,-4.404049 1.924989,-0.549708 4.15629,-0.237296 5.593341,0.783143 l -3.635114,2.30648 z"
         sodipodi:ry="3.3576016"
         sodipodi:rx="5.0021415"
         sodipodi:cy="42.004284"
         sodipodi:cx="13.087794"
         id="path4351"
         style="opacity:0.74038463;fill:#e6e6e6;fill-opacity:1;stroke:#322828;stroke-width:1.3189702;stroke-linecap:round;stroke-miterlimit:4;stroke-opacity:0.57558139;stroke-dasharray:none;stroke-dashoffset:0"
         sodipodi:type="arc" />
      <path
         sodipodi:type="arc"
         style="opacity:0.84134617;fill:#e6e6e6;fill-opacity:1;stroke:#2d2d2d;stroke-width:1.31861365;stroke-linecap:round;stroke-miterlimit:4;stroke-opacity:0.57558139;stroke-dasharray:none;stroke-dashoffset:0"
         id="path4373"
         sodipodi:cx="13.087794"
         sodipodi:cy="42.004284"
         sodipodi:rx="5.0021415"
         sodipodi:ry="3.3576016"
         d="m 17.690703,40.689858 c 1.081499,1.706352 -0.102566,3.678112 -2.644682,4.404049 -2.542116,0.725938 -5.4796364,-0.06885 -6.5611352,-1.775197 -1.0814988,-1.706352 0.1025655,-3.678112 2.6446812,-4.404049 1.924989,-0.549708 4.15629,-0.237296 5.593341,0.783143 l -3.635114,2.30648 z"
         sodipodi:start="5.8809484"
         sodipodi:end="11.809097"
         transform="matrix(-1.8096982,-1.6628142,2.5716466,-2.3629188,63.662613,148.74159)" />
      <path
         style="fill:url(#linearGradient3049);fill-opacity:1;stroke:#b11b1b;stroke-width:0.29163235;stroke-linecap:butt;stroke-linejoin:miter;stroke-miterlimit:4;stroke-opacity:1;stroke-dasharray:none"
         d="m 165.07615,20.703228 c 0,0 -12.49926,-9.694412 -22.63672,-10.7432265 C 133.94509,9.0811556 122.94449,9.990797 116.61446,5.5650435 103.9131,-3.3157898 92.873806,-10.391561 66.558654,-11.770655 31.728766,-13.595976 7.6663072,14.197121 10.126306,18.749926 8.2728994,18.324098 32.075451,-10.018524 67.515131,-6.3990357 87.207498,-4.3878384 93.10863,-0.3715519 113.4262,10.20416 c 7.50974,3.908967 21.2385,2.119479 30.28855,2.685818 9.77475,0.611679 21.3614,7.81325 21.3614,7.81325 z"
         id="path4377"
         sodipodi:nodetypes="cssscsssc"
         inkscape:export-filename="C:\Documents and Settings\Fastallow\Desktop\cars_logo.png"
         inkscape:export-xdpi="36.964985"
         inkscape:export-ydpi="36.964985"
         inkscape:connector-curvature="0" />
    </g>
  </g>
</svg>
